LEGENDE:                                   CONDITIONS:                                   SCHÉMA POSSIBLE:

+-------------------------------+          + condition n°1
|                               |                                                                                                      n°1
|    +------>    lien direct    |            +------------+      +------------+                                                            +------------+
|                               |            |-|XXXXX|----|      |XXXXXXXXXXXX|                                                            |-|XX|----------------------+
|    <------>    lien mutuel    |            |------------|      |XXXXXXXXXXXX|                                                            |------------|              |
|                               |            |------------|      |XXXXXXXXXXXX|                                                            |------------|              |
|    +------+    lien éloigné   |            |---|XXXX|---|      |XXXXXXXXXXXX|                                         +--------------------->XXXXX|---|              |
|                               |            |------------|      |XXXXXXXXXXXX|                                         |                  |------------|              |
|    XXXXXXXX    fragment       |            |-|XXXXXXXXX||      |XXXXXXXXXXXX|                                         |                  |-|XXXXXXXXX||              |
|                               |            |------------|      |XXXXXXXXXXXX|                                         |                  |-----+ ^ +--|              |
|    +------+    article        |            +------------+      +------------+                                         |                  +-----+ | +--+              |
|    |------|                   |                                                                                       |                          |                   |
|    |------|                   |          + condition n°2                                                              |                          |                   |
|    |------|                   |                                                                                       |                          |                   |
|    +------+                   |            +------------+      +------------+                                         |                          |                   |
|                               |            |------------|      |------------|                                         |                          |                   |
+-------------------------------+            |------------|      |------------|                                         |                          |                   |
                                             |------------|      |------------|                              n°2        |                n°3       |               n°4 v
                                             |---|XXXXX|--|      |---|XXXXX|--|                                  +----+ v +---+              +---+ | +----+            +------------+
                                             |----+ ^ +---|      |----+ + +---|                                  |XXXXXXXXXXXX|              |---| | |----|            |-|XXXXX|------------+
                                             |----| | |---|      |----| | |---|                                  |XXXXXXXXXXXX|              |---| | |----|            |------------|       |
                                             |----| | |---|      |----| | |---|                                  |XXXXXXXXXXXX|              |---| | |----|            |------------|       |
                                             +----+ | +---+      +----+ | +---+                                  |XXXXXXXXXXXX|              |---| | |----|            |------------|       |
                                                    |                   |                                        |XXXXXXXXXXXX|              |---+ v +----|            |------------|       |
                                                    |                   |                                        |XXXXXXXXXXXX|              |-|XXXXXXXXX<--------------->XXXXXXXXX||       |
                                                    |                   |                                        |XXXXXXXXXXXX|              |------------|            |------------|       |
                                                    v                   v                                        +----+ ^ +---+              +------------+            +------------+       |
                                                                                                                        |                                                                   |
                                           + condition n°3                                                              |                                                                   |
                                                                                                                        |                                                                   |
                                             XXXXX                    XXXXX                                             |                                                                   |
                                               +                        ^                                               |                                                                   |
                                               |                        |                                               |                                                                   |
                                               |                        |                                               |                                                                   |
                                               |                        |                                    +-----------------------------------------------------------------------------------+
                                               v                        v                                    |          |                                                                   |    |
                                               +------------+         XXXXX                                  |          |                                                                   |    |
                                               |------------|                                            n°5 v          |                n°6                                            n°7 v    |
                                               |------------|                                                +--------+ | +                  +------------+                                 +--+ + +-----+
                                               |------------|                              +-------------------|XXXXX|| | |                  |XXXXXXXXXXXX|                                 |-|XXXXX|----|
                                               |------------|                              |                 |--------| | |                  |XXXXXXXXXXXX|                                 |------------|
                                               |------------|                              |                 |--------| | |                  |XXXXXXXXXXXX|                                 |------------|
                                               |------------|                              |        +------------|X|--| | |                  |XXXXXXXXXXXX|                  +------------------|XXXX|---|
                                               |------------|                              |        |        |--------+ v |                  |XXXXXXXXXXXX|                  |              |------------|
                                               +------------+                              |        |        |-|XXXXXXXXX++                  |XXXXXXXXXXXX<----------------------------------->XXXXXXXXX||
                                                                                           |        |        |------------|                  |XXXXXXXXXXXX|                  |              |------------|
                                           + condition n°4                                 |        |        +------------+                  +------------+                  |              +------------+
                                                                                           |        |                                                                        |
                                             +------------+                                |        |                                                                        |
                                             |XXXXXXXXXXXX|                                |        |                                                                        |
                                             |XXXXXXXXXXXX|                                |        |                                                                        |
                                             |XXXXXXXXXXXX|                                |        |                                                                        |
                                             |XXXXXXXXXXXX|                                |        |                                                                        |
                                             |XXXXXXXXXXXX|                                |        |                                                                        |
                                             |XXXXXXXXXXXX|                                |        |                                                                        |
                                             |XXXXXXXXXXXX|                                |        |                                                                        |
                                             +----+ ^ +---+                                |    n°8 v                  n°9                    n°10                      n°11 v
                                                    |                                      |        +------------+         +------------+          +------------+            +------------+
                                                    |                                      |        |XXXXXXXXXXXX|         |------------|      +-----|XXXXX|----|            |XXXXXXXXXXXX|
                                                    |                                      |        |XXXXXXXXXXXX<----------->XXXXXXXX|-|      |   |------------|            |XXXXXXXXXXXX|
                                             +----+ | +---+                                |        |XXXXXXXXXXXX|         |------------|      |   |------------|            |XXXXXXXXXXXX|
                                             |----| | |---|                                |        |XXXX+--+XXXX|         |------------|      |   |---|XXXX<--------+       |XXXXXXXXXXXX|
                                             |----| | |---|                                |        |XXXXXXXXXXXX|         |------------|      |   |------------|    |       |XXXXXXXXXXXX|
                                             |----+ v +---|                                |        |XXXXXXXXXXXX|         |------------|      |   |-|XXXXXXXXX<------------->XXXXXXXXXXXX|
                                             |---|XXXXX|--|                                |        |XXXXXXXXXXXX|         |------------|      |   |------------|    |       |XXXXXXXXXXXX|
                                             |------------|                                |        +---+ ^ +----+         +------------+      |   +------------+    |       +------------+
                                             |------------|                                |              |                                    |                     |
                                             |------------|                                |              |                                    |                     |
                                             +------------+                                |              |                                    |                     |
                                                                                           |              |                                    |                     |
                                                                                           |              |                                    |                     |
                                                                                           |              |                                    |                     |
                                                                                           |              |                                    |                     |
                                                                                           |              |                                    |                     |
                                                                                           |              |                               n°12 v                     |
                                                                                           |              |                                    +------------+        |
                                                                                           |              +--------------------------------------->XXXX|----|        |
                                                                                           |                                                   |------------|        |
                                                                                           |                                                   |------------|        |
                                                                                           +------------------------------------------------------->XXXX|---|        |
                                                                                                                                               |------------|        |
                                                                                                                                               |-|XXXXXXXXX<---------+
                                                                                                                                               |------------|
                                                                                                                                               +------------+
