<?xml version="1.0" encoding="UTF-8" standalone="no"?>
<!-- Created with Inkscape (http://www.inkscape.org/) -->

<svg
   xmlns:osb="http://www.openswatchbook.org/uri/2009/osb"
   xmlns:dc="http://purl.org/dc/elements/1.1/"
   xmlns:cc="http://creativecommons.org/ns#"
   xmlns:rdf="http://www.w3.org/1999/02/22-rdf-syntax-ns#"
   xmlns:svg="http://www.w3.org/2000/svg"
   xmlns="http://www.w3.org/2000/svg"
   xmlns:xlink="http://www.w3.org/1999/xlink"
   xmlns:sodipodi="http://sodipodi.sourceforge.net/DTD/sodipodi-0.dtd"
   xmlns:inkscape="http://www.inkscape.org/namespaces/inkscape"
   width="1024"
   height="768"
   viewBox="0 0 1024 767.99999"
   id="svg2"
   version="1.1"
   inkscape:version="0.91 r13725"
   sodipodi:docname="schemas-v1-v2.svg">
  <defs
     id="defs4">
    <linearGradient
       id="linearGradient4584"
       osb:paint="solid"
       gradientTransform="translate(379.60976,675.65124)">
      <stop
         style="stop-color:#000000;stop-opacity:1;"
         offset="0"
         id="stop4586" />
    </linearGradient>
    <linearGradient
       inkscape:collect="always"
       xlink:href="#linearGradient4584"
       id="linearGradient4588"
       x1="58.984375"
       y1="511.76907"
       x2="957.63672"
       y2="511.76907"
       gradientUnits="userSpaceOnUse" />
    <linearGradient
       inkscape:collect="always"
       xlink:href="#linearGradient4584"
       id="linearGradient5319"
       gradientUnits="userSpaceOnUse"
       x1="58.984375"
       y1="511.76907"
       x2="957.63672"
       y2="511.76907" />
    <linearGradient
       inkscape:collect="always"
       xlink:href="#linearGradient4584"
       id="linearGradient5321"
       gradientUnits="userSpaceOnUse"
       x1="58.984375"
       y1="511.76907"
       x2="957.63672"
       y2="511.76907" />
    <linearGradient
       inkscape:collect="always"
       xlink:href="#linearGradient4584"
       id="linearGradient5323"
       gradientUnits="userSpaceOnUse"
       x1="58.984375"
       y1="511.76907"
       x2="957.63672"
       y2="511.76907" />
    <linearGradient
       inkscape:collect="always"
       xlink:href="#linearGradient4584"
       id="linearGradient5325"
       gradientUnits="userSpaceOnUse"
       x1="58.984375"
       y1="511.76907"
       x2="957.63672"
       y2="511.76907" />
    <linearGradient
       inkscape:collect="always"
       xlink:href="#linearGradient4584"
       id="linearGradient5327"
       gradientUnits="userSpaceOnUse"
       x1="58.984375"
       y1="511.76907"
       x2="957.63672"
       y2="511.76907" />
    <linearGradient
       inkscape:collect="always"
       xlink:href="#linearGradient4584"
       id="linearGradient5329"
       gradientUnits="userSpaceOnUse"
       x1="58.984375"
       y1="511.76907"
       x2="957.63672"
       y2="511.76907" />
    <linearGradient
       inkscape:collect="always"
       xlink:href="#linearGradient4584"
       id="linearGradient5331"
       gradientUnits="userSpaceOnUse"
       x1="58.984375"
       y1="511.76907"
       x2="957.63672"
       y2="511.76907" />
    <linearGradient
       inkscape:collect="always"
       xlink:href="#linearGradient4584"
       id="linearGradient5333"
       gradientUnits="userSpaceOnUse"
       x1="58.984375"
       y1="511.76907"
       x2="957.63672"
       y2="511.76907" />
    <linearGradient
       inkscape:collect="always"
       xlink:href="#linearGradient4584"
       id="linearGradient5335"
       gradientUnits="userSpaceOnUse"
       x1="58.984375"
       y1="511.76907"
       x2="957.63672"
       y2="511.76907" />
    <linearGradient
       inkscape:collect="always"
       xlink:href="#linearGradient4584"
       id="linearGradient5337"
       gradientUnits="userSpaceOnUse"
       x1="58.984375"
       y1="511.76907"
       x2="957.63672"
       y2="511.76907" />
    <linearGradient
       inkscape:collect="always"
       xlink:href="#linearGradient4584"
       id="linearGradient5339"
       gradientUnits="userSpaceOnUse"
       x1="58.984375"
       y1="511.76907"
       x2="957.63672"
       y2="511.76907" />
    <linearGradient
       inkscape:collect="always"
       xlink:href="#linearGradient4584"
       id="linearGradient5341"
       gradientUnits="userSpaceOnUse"
       x1="58.984375"
       y1="511.76907"
       x2="957.63672"
       y2="511.76907" />
    <linearGradient
       inkscape:collect="always"
       xlink:href="#linearGradient4584"
       id="linearGradient5343"
       gradientUnits="userSpaceOnUse"
       x1="58.984375"
       y1="511.76907"
       x2="957.63672"
       y2="511.76907" />
    <linearGradient
       inkscape:collect="always"
       xlink:href="#linearGradient4584"
       id="linearGradient5345"
       gradientUnits="userSpaceOnUse"
       x1="58.984375"
       y1="511.76907"
       x2="957.63672"
       y2="511.76907" />
    <linearGradient
       inkscape:collect="always"
       xlink:href="#linearGradient4584"
       id="linearGradient5347"
       gradientUnits="userSpaceOnUse"
       x1="58.984375"
       y1="511.76907"
       x2="957.63672"
       y2="511.76907" />
    <linearGradient
       inkscape:collect="always"
       xlink:href="#linearGradient4584"
       id="linearGradient5349"
       gradientUnits="userSpaceOnUse"
       x1="58.984375"
       y1="511.76907"
       x2="957.63672"
       y2="511.76907" />
    <linearGradient
       inkscape:collect="always"
       xlink:href="#linearGradient4584"
       id="linearGradient5698"
       gradientUnits="userSpaceOnUse"
       x1="58.984375"
       y1="511.76907"
       x2="957.63672"
       y2="511.76907" />
    <linearGradient
       inkscape:collect="always"
       xlink:href="#linearGradient4584"
       id="linearGradient5700"
       gradientUnits="userSpaceOnUse"
       x1="58.984375"
       y1="511.76907"
       x2="957.63672"
       y2="511.76907" />
    <linearGradient
       inkscape:collect="always"
       xlink:href="#linearGradient4584"
       id="linearGradient5754"
       gradientUnits="userSpaceOnUse"
       x1="58.984375"
       y1="511.76907"
       x2="957.63672"
       y2="511.76907" />
    <linearGradient
       inkscape:collect="always"
       xlink:href="#linearGradient4584"
       id="linearGradient5756"
       gradientUnits="userSpaceOnUse"
       x1="58.984375"
       y1="511.76907"
       x2="957.63672"
       y2="511.76907" />
    <linearGradient
       inkscape:collect="always"
       xlink:href="#linearGradient4584"
       id="linearGradient5758"
       gradientUnits="userSpaceOnUse"
       x1="58.984375"
       y1="511.76907"
       x2="957.63672"
       y2="511.76907" />
    <linearGradient
       inkscape:collect="always"
       xlink:href="#linearGradient4584"
       id="linearGradient5760"
       gradientUnits="userSpaceOnUse"
       x1="58.984375"
       y1="511.76907"
       x2="957.63672"
       y2="511.76907" />
    <linearGradient
       inkscape:collect="always"
       xlink:href="#linearGradient4584"
       id="linearGradient5762"
       gradientUnits="userSpaceOnUse"
       x1="58.984375"
       y1="511.76907"
       x2="957.63672"
       y2="511.76907" />
  </defs>
  <sodipodi:namedview
     id="base"
     pagecolor="#ffffff"
     bordercolor="#666666"
     borderopacity="1.0"
     inkscape:pageopacity="0.0"
     inkscape:pageshadow="2"
     inkscape:zoom="0.11"
     inkscape:cx="6864.5561"
     inkscape:cy="-1283.5065"
     inkscape:document-units="px"
     inkscape:current-layer="layer1"
     showgrid="false"
     units="px"
     inkscape:window-width="1920"
     inkscape:window-height="1016"
     inkscape:window-x="0"
     inkscape:window-y="27"
     inkscape:window-maximized="1"
     inkscape:snap-others="false"
     showguides="false"
     inkscape:guide-bbox="true">
    <sodipodi:guide
       position="4035.2941,770.58823"
       orientation="0,1"
       id="guide4415" />
    <sodipodi:guide
       position="2177.9412,-1970.5882"
       orientation="0,1"
       id="guide4424" />
    <sodipodi:guide
       position="2722.0588,-2076.4706"
       orientation="0,1"
       id="guide4468" />
    <sodipodi:guide
       position="2077.9412,-2030.8823"
       orientation="0,1"
       id="guide4987" />
  </sodipodi:namedview>
  <metadata
     id="metadata7">
    <rdf:RDF>
      <cc:Work
         rdf:about="">
        <dc:format>image/svg+xml</dc:format>
        <dc:type
           rdf:resource="http://purl.org/dc/dcmitype/StillImage" />
        <dc:title></dc:title>
      </cc:Work>
    </rdf:RDF>
  </metadata>
  <g
     inkscape:label="Calque 1"
     inkscape:groupmode="layer"
     id="layer1"
     transform="translate(0,-284.36223)">
    <path
       style="fill:#0000ff;fill-opacity:1;stroke:#0000ff;stroke-width:0.70152855"
       d=""
       id="path4393"
       inkscape:connector-curvature="0"
       transform="translate(0,284.36223)" />
    <path
       style="fill:#0000ff;fill-opacity:1;stroke:#0000ff;stroke-width:0.70152855"
       d=""
       id="path4405"
       inkscape:connector-curvature="0"
       transform="translate(0,284.36223)" />
    <path
       inkscape:connector-curvature="0"
       id="path4508"
       d="m 306.11793,-348.67806 c -0.26448,-0.42793 1.2756,-2.54192 3.45991,-4.74927 l 3.93655,-3.97806 -4.00611,-4.00611 c -3.17044,-3.17045 -3.82609,-4.18613 -3.14311,-4.86911 0.68297,-0.68298 1.81264,0.0782 5.41549,3.64903 2.50387,2.48162 4.5525,4.84596 4.5525,5.25409 0,0.79533 -8.49402,9.47064 -9.27273,9.47064 -0.25623,0 -0.68035,-0.34705 -0.9425,-0.77121 z"
       style="fill:#0000ff;fill-opacity:1;stroke:#0000ff;stroke-width:0.70152855" />
    <g
       id="g4553"
       transform="matrix(0.06945001,0,0,0.06945001,2369.3956,740.7769)"
       style="stroke:#000000;stroke-opacity:1;fill:#ffffff;fill-opacity:1;opacity:0;stroke-width:22.59179084;stroke-miterlimit:4;stroke-dasharray:none">
      <g
         id="g4511"
         style="stroke:#000000;stroke-opacity:1;fill:#ffffff;fill-opacity:1;stroke-width:22.59179084;stroke-miterlimit:4;stroke-dasharray:none">
        <g
           id="g4513"
           style="stroke:#000000;stroke-opacity:1;fill:#ffffff;fill-opacity:1;stroke-width:22.59179084;stroke-miterlimit:4;stroke-dasharray:none" />
      </g>
      <g
         id="g4517"
         style="stroke:#000000;stroke-opacity:1;fill:#ffffff;fill-opacity:1;stroke-width:22.59179084;stroke-miterlimit:4;stroke-dasharray:none" />
      <g
         id="g4519"
         style="stroke:#000000;stroke-opacity:1;fill:#ffffff;fill-opacity:1;stroke-width:22.59179084;stroke-miterlimit:4;stroke-dasharray:none" />
      <g
         id="g4521"
         style="stroke:#000000;stroke-opacity:1;fill:#ffffff;fill-opacity:1;stroke-width:22.59179084;stroke-miterlimit:4;stroke-dasharray:none" />
      <g
         id="g4523"
         style="stroke:#000000;stroke-opacity:1;fill:#ffffff;fill-opacity:1;stroke-width:22.59179084;stroke-miterlimit:4;stroke-dasharray:none" />
      <g
         id="g4525"
         style="stroke:#000000;stroke-opacity:1;fill:#ffffff;fill-opacity:1;stroke-width:22.59179084;stroke-miterlimit:4;stroke-dasharray:none" />
      <g
         id="g4527"
         style="stroke:#000000;stroke-opacity:1;fill:#ffffff;fill-opacity:1;stroke-width:22.59179084;stroke-miterlimit:4;stroke-dasharray:none" />
      <g
         id="g4529"
         style="stroke:#000000;stroke-opacity:1;fill:#ffffff;fill-opacity:1;stroke-width:22.59179084;stroke-miterlimit:4;stroke-dasharray:none" />
      <g
         id="g4531"
         style="stroke:#000000;stroke-opacity:1;fill:#ffffff;fill-opacity:1;stroke-width:22.59179084;stroke-miterlimit:4;stroke-dasharray:none" />
      <g
         id="g4533"
         style="stroke:#000000;stroke-opacity:1;fill:#ffffff;fill-opacity:1;stroke-width:22.59179084;stroke-miterlimit:4;stroke-dasharray:none" />
      <g
         id="g4535"
         style="stroke:#000000;stroke-opacity:1;fill:#ffffff;fill-opacity:1;stroke-width:22.59179084;stroke-miterlimit:4;stroke-dasharray:none" />
      <g
         id="g4537"
         style="stroke:#000000;stroke-opacity:1;fill:#ffffff;fill-opacity:1;stroke-width:22.59179084;stroke-miterlimit:4;stroke-dasharray:none" />
      <g
         id="g4539"
         style="stroke:#000000;stroke-opacity:1;fill:#ffffff;fill-opacity:1;stroke-width:22.59179084;stroke-miterlimit:4;stroke-dasharray:none" />
      <g
         id="g4541"
         style="stroke:#000000;stroke-opacity:1;fill:#ffffff;fill-opacity:1;stroke-width:22.59179084;stroke-miterlimit:4;stroke-dasharray:none" />
      <g
         id="g4543"
         style="stroke:#000000;stroke-opacity:1;fill:#ffffff;fill-opacity:1;stroke-width:22.59179084;stroke-miterlimit:4;stroke-dasharray:none" />
      <g
         id="g4545"
         style="stroke:#000000;stroke-opacity:1;fill:#ffffff;fill-opacity:1;stroke-width:22.59179084;stroke-miterlimit:4;stroke-dasharray:none" />
    </g>
    <flowRoot
       xml:space="preserve"
       id="flowRoot5060"
       style="fill:black;stroke:none;stroke-opacity:1;stroke-width:1px;stroke-linejoin:miter;stroke-linecap:butt;fill-opacity:1;font-family:sans-serif;font-style:normal;font-weight:normal;font-size:40px;line-height:125%;letter-spacing:0px;word-spacing:0px"><flowRegion
         id="flowRegion5062"><rect
           id="rect5064"
           width="274.43896"
           height="362.12952"
           x="4287.0938"
           y="313.30823" /></flowRegion><flowPara
         id="flowPara5066" /></flowRoot>    <text
       xml:space="preserve"
       style="font-style:normal;font-weight:normal;font-size:40px;line-height:125%;font-family:sans-serif;letter-spacing:0px;word-spacing:0px;fill:#000000;fill-opacity:1;stroke:none;stroke-width:1px;stroke-linecap:butt;stroke-linejoin:miter;stroke-opacity:1"
       x="471.77301"
       y="539.85114"
       id="text5080"
       sodipodi:linespacing="125%"><tspan
         sodipodi:role="line"
         id="tspan5082"
         x="471.77301"
         y="539.85114" /></text>
    <flowRoot
       xml:space="preserve"
       id="flowRoot4939"
       style="fill:black;stroke:none;stroke-opacity:1;stroke-width:1px;stroke-linejoin:miter;stroke-linecap:butt;fill-opacity:1;font-family:sans-serif;font-style:normal;font-weight:normal;font-size:40px;line-height:125%;letter-spacing:0px;word-spacing:0px"><flowRegion
         id="flowRegion4941"><rect
           id="rect4943"
           width="889.89673"
           height="326.40375"
           x="3493.0071"
           y="2893.6841" /></flowRegion><flowPara
         id="flowPara4945" /></flowRoot>    <flowRoot
       xml:space="preserve"
       id="flowRoot5432"
       style="fill:black;stroke:none;stroke-opacity:1;stroke-width:1px;stroke-linejoin:miter;stroke-linecap:butt;fill-opacity:1;font-family:sans-serif;font-style:normal;font-weight:normal;font-size:40px;line-height:125%;letter-spacing:0px;word-spacing:0px"><flowRegion
         id="flowRegion5434"><rect
           id="rect5436"
           width="858.82355"
           height="172.05882"
           x="10335.294"
           y="3518" /></flowRegion><flowPara
         id="flowPara5438" /></flowRoot>    <flowRoot
       xml:space="preserve"
       id="flowRoot7183"
       style="font-style:normal;font-weight:normal;font-size:40px;line-height:125%;font-family:sans-serif;letter-spacing:0px;word-spacing:0px;fill:#000000;fill-opacity:1;stroke:none;stroke-width:1px;stroke-linecap:butt;stroke-linejoin:miter;stroke-opacity:1"
       transform="translate(0,284.36223)"><flowRegion
         id="flowRegion7185"><rect
           id="rect7187"
           width="96.428574"
           height="67.85714"
           x="3014.2856"
           y="1353.7142" /></flowRegion><flowPara
         id="flowPara7189" /></flowRoot>    <rect
       style="opacity:1;fill:none;fill-opacity:1;stroke:#0000ff;stroke-width:1;stroke-linecap:round;stroke-linejoin:round;stroke-miterlimit:4;stroke-dasharray:none;stroke-opacity:1"
       id="rect7335"
       width="2614.2856"
       height="2281.7742"
       x="1320.4546"
       y="312.14661" />
    <circle
       style="opacity:1;fill:#000000;fill-opacity:1;stroke:none;stroke-width:1;stroke-linecap:round;stroke-linejoin:round;stroke-miterlimit:4;stroke-dasharray:none;stroke-opacity:1"
       id="circle7337"
       cx="2146.2021"
       cy="741.92676"
       r="24.427755" />
    <circle
       r="24.427755"
       cy="1449.0697"
       cx="1835.4878"
       id="circle7339"
       style="opacity:1;fill:#000000;fill-opacity:1;stroke:none;stroke-width:1;stroke-linecap:round;stroke-linejoin:round;stroke-miterlimit:4;stroke-dasharray:none;stroke-opacity:1" />
    <circle
       style="opacity:1;fill:#000000;fill-opacity:1;stroke:none;stroke-width:1;stroke-linecap:round;stroke-linejoin:round;stroke-miterlimit:4;stroke-dasharray:none;stroke-opacity:1"
       id="circle7341"
       cx="3064.0591"
       cy="1113.3553"
       r="24.427755" />
    <rect
       y="511.53635"
       x="2141.2773"
       height="121.91136"
       width="251.2113"
       id="rect7345"
       style="opacity:1;fill:none;fill-opacity:1;stroke:#000000;stroke-width:0.51719975;stroke-linecap:round;stroke-linejoin:round;stroke-miterlimit:4;stroke-dasharray:none;stroke-opacity:1" />
    <rect
       style="opacity:1;fill:none;fill-opacity:1;stroke:#000000;stroke-width:0.51719975;stroke-linecap:round;stroke-linejoin:round;stroke-miterlimit:4;stroke-dasharray:none;stroke-opacity:1"
       id="rect7347"
       width="251.2113"
       height="121.91136"
       x="2251.9912"
       y="715.10773" />
    <rect
       y="793.67914"
       x="1812.7056"
       height="121.91136"
       width="251.2113"
       id="rect7349"
       style="opacity:1;fill:none;fill-opacity:1;stroke:#000000;stroke-width:0.51719975;stroke-linecap:round;stroke-linejoin:round;stroke-miterlimit:4;stroke-dasharray:none;stroke-opacity:1" />
    <rect
       style="opacity:1;fill:none;fill-opacity:1;stroke:#000000;stroke-width:0.51719975;stroke-linecap:round;stroke-linejoin:round;stroke-miterlimit:4;stroke-dasharray:none;stroke-opacity:1"
       id="rect7351"
       width="251.2113"
       height="121.91136"
       x="1744.8486"
       y="575.82202" />
    <rect
       y="1229.3936"
       x="1648.4194"
       height="121.91136"
       width="251.2113"
       id="rect7355"
       style="opacity:1;fill:none;fill-opacity:1;stroke:#000000;stroke-width:0.51719975;stroke-linecap:round;stroke-linejoin:round;stroke-miterlimit:4;stroke-dasharray:none;stroke-opacity:1" />
    <rect
       style="opacity:1;fill:none;fill-opacity:1;stroke:#000000;stroke-width:0.51719975;stroke-linecap:round;stroke-linejoin:round;stroke-miterlimit:4;stroke-dasharray:none;stroke-opacity:1"
       id="rect7357"
       width="251.2113"
       height="121.91136"
       x="1962.7051"
       y="1347.2507" />
    <rect
       y="1565.1079"
       x="1819.8481"
       height="121.91136"
       width="251.2113"
       id="rect7359"
       style="opacity:1;fill:none;fill-opacity:1;stroke:#000000;stroke-width:0.51719975;stroke-linecap:round;stroke-linejoin:round;stroke-miterlimit:4;stroke-dasharray:none;stroke-opacity:1" />
    <circle
       r="24.427755"
       cy="2049.0696"
       cx="2521.2017"
       id="circle7361"
       style="opacity:1;fill:#000000;fill-opacity:1;stroke:none;stroke-width:1;stroke-linecap:round;stroke-linejoin:round;stroke-miterlimit:4;stroke-dasharray:none;stroke-opacity:1" />
    <rect
       y="1200.8221"
       x="2884.1338"
       height="121.91136"
       width="251.2113"
       id="rect7363"
       style="opacity:1;fill:none;fill-opacity:1;stroke:#000000;stroke-width:0.51719975;stroke-linecap:round;stroke-linejoin:round;stroke-miterlimit:4;stroke-dasharray:none;stroke-opacity:1" />
    <rect
       style="opacity:1;fill:none;fill-opacity:1;stroke:#000000;stroke-width:0.51719975;stroke-linecap:round;stroke-linejoin:round;stroke-miterlimit:4;stroke-dasharray:none;stroke-opacity:1"
       id="rect7367"
       width="251.2113"
       height="121.91136"
       x="3226.9907"
       y="1043.6793" />
    <rect
       y="865.10785"
       x="2937.7051"
       height="121.91136"
       width="251.2113"
       id="rect7369"
       style="opacity:1;fill:none;fill-opacity:1;stroke:#000000;stroke-width:0.51719975;stroke-linecap:round;stroke-linejoin:round;stroke-miterlimit:4;stroke-dasharray:none;stroke-opacity:1" />
    <rect
       style="opacity:1;fill:none;fill-opacity:1;stroke:#000000;stroke-width:0.51719975;stroke-linecap:round;stroke-linejoin:round;stroke-miterlimit:4;stroke-dasharray:none;stroke-opacity:1"
       id="rect7371"
       width="251.2113"
       height="121.91136"
       x="2694.8481"
       y="1025.8221" />
    <rect
       y="1854.3936"
       x="2484.1338"
       height="121.91136"
       width="251.2113"
       id="rect7373"
       style="opacity:1;fill:none;fill-opacity:1;stroke:#000000;stroke-width:0.51719975;stroke-linecap:round;stroke-linejoin:round;stroke-miterlimit:4;stroke-dasharray:none;stroke-opacity:1" />
    <rect
       style="opacity:1;fill:none;fill-opacity:1;stroke:#000000;stroke-width:0.51719975;stroke-linecap:round;stroke-linejoin:round;stroke-miterlimit:4;stroke-dasharray:none;stroke-opacity:1"
       id="rect7375"
       width="251.2113"
       height="121.91136"
       x="2205.5625"
       y="2118.6794" />
    <circle
       style="opacity:1;fill:#000000;fill-opacity:1;stroke:none;stroke-width:1;stroke-linecap:round;stroke-linejoin:round;stroke-miterlimit:4;stroke-dasharray:none;stroke-opacity:1"
       id="circle7381"
       cx="3439.0591"
       cy="1681.2124"
       r="24.427755" />
    <rect
       style="opacity:1;fill:none;fill-opacity:1;stroke:#000000;stroke-width:0.51719975;stroke-linecap:round;stroke-linejoin:round;stroke-miterlimit:4;stroke-dasharray:none;stroke-opacity:1"
       id="rect7383"
       width="251.2113"
       height="121.91136"
       x="3341.2769"
       y="1390.1078" />
    <rect
       y="1750.8221"
       x="3123.4199"
       height="121.91136"
       width="251.2113"
       id="rect7385"
       style="opacity:1;fill:none;fill-opacity:1;stroke:#000000;stroke-width:0.51719975;stroke-linecap:round;stroke-linejoin:round;stroke-miterlimit:4;stroke-dasharray:none;stroke-opacity:1" />
    <rect
       style="opacity:1;fill:none;fill-opacity:1;stroke:#000000;stroke-width:0.51719975;stroke-linecap:round;stroke-linejoin:round;stroke-miterlimit:4;stroke-dasharray:none;stroke-opacity:1"
       id="rect7387"
       width="251.2113"
       height="121.91136"
       x="3537.7056"
       y="1750.8221" />
    <rect
       y="1522.2507"
       x="3059.1343"
       height="121.91136"
       width="251.2113"
       id="rect7389"
       style="opacity:1;fill:none;fill-opacity:1;stroke:#000000;stroke-width:0.51719975;stroke-linecap:round;stroke-linejoin:round;stroke-miterlimit:4;stroke-dasharray:none;stroke-opacity:1" />
    <rect
       style="opacity:1;fill:none;fill-opacity:1;stroke:#000000;stroke-width:0.51719975;stroke-linecap:round;stroke-linejoin:round;stroke-miterlimit:4;stroke-dasharray:none;stroke-opacity:1"
       id="rect7391"
       width="251.2113"
       height="121.91136"
       x="3573.4199"
       y="1554.3937" />
    <path
       style="fill:none;fill-rule:evenodd;stroke:#0000ff;stroke-width:1px;stroke-linecap:butt;stroke-linejoin:miter;stroke-opacity:1"
       d="m 2145.4545,729.63496 350,-17.85714"
       id="path7396"
       inkscape:connector-curvature="0" />
    <path
       style="fill:none;fill-rule:evenodd;stroke:#0000ff;stroke-width:1px;stroke-linecap:butt;stroke-linejoin:miter;stroke-opacity:1"
       d="M 2388.3116,504.63496 2152.5974,733.20639"
       id="path7398"
       inkscape:connector-curvature="0" />
    <path
       style="fill:none;fill-rule:evenodd;stroke:#0000ff;stroke-width:1px;stroke-linecap:butt;stroke-linejoin:miter;stroke-opacity:1"
       d="m 1991.8831,576.06353 146.4285,153.57143"
       id="path7400"
       inkscape:connector-curvature="0" />
    <path
       style="fill:#0000ff;fill-rule:evenodd;stroke:#0000ff;stroke-width:1px;stroke-linecap:butt;stroke-linejoin:miter;stroke-opacity:1"
       d="m 2059.7402,793.92067 89.2857,-60.71428"
       id="path7402"
       inkscape:connector-curvature="0" />
    <path
       style="fill:none;fill-rule:evenodd;stroke:#0000ff;stroke-width:1px;stroke-linecap:butt;stroke-linejoin:miter;stroke-opacity:1"
       d="m 1895.4545,1233.2064 -50,214.2856"
       id="path7404"
       inkscape:connector-curvature="0" />
    <path
       style="fill:none;fill-rule:evenodd;stroke:#0000ff;stroke-width:1px;stroke-linecap:butt;stroke-linejoin:miter;stroke-opacity:1"
       d="m 2216.8831,1347.492 -375,100"
       id="path7406"
       inkscape:connector-curvature="0" />
    <path
       style="fill:none;fill-rule:evenodd;stroke:#0000ff;stroke-width:1px;stroke-linecap:butt;stroke-linejoin:miter;stroke-opacity:1"
       d="M 2070.4545,1561.7778 1838.3116,1443.9206"
       id="path7408"
       inkscape:connector-curvature="0" />
    <path
       style="fill:none;fill-rule:evenodd;stroke:#0000ff;stroke-width:1px;stroke-linecap:butt;stroke-linejoin:miter;stroke-opacity:1"
       d="m 2731.1688,1851.0635 -214.2857,203.5714"
       id="path7410"
       inkscape:connector-curvature="0" />
    <path
       style="fill:none;fill-rule:evenodd;stroke:#0000ff;stroke-width:1px;stroke-linecap:butt;stroke-linejoin:miter;stroke-opacity:1"
       d="m 2449.0259,2118.9206 71.4286,-60.7143"
       id="path7412"
       inkscape:connector-curvature="0" />
    <path
       style="fill:none;fill-rule:evenodd;stroke:#0000ff;stroke-width:1px;stroke-linecap:butt;stroke-linejoin:miter;stroke-opacity:1"
       d="M 3184.7402,865.34925 3066.8831,1115.3492"
       id="path7414"
       inkscape:connector-curvature="0" />
    <path
       style="fill:none;fill-rule:evenodd;stroke:#0000ff;stroke-width:1px;stroke-linecap:butt;stroke-linejoin:miter;stroke-opacity:1"
       d="m 2938.3116,1029.6349 121.4286,75"
       id="path7416"
       inkscape:connector-curvature="0" />
    <path
       style="fill:none;fill-rule:evenodd;stroke:#0000ff;stroke-width:1px;stroke-linecap:butt;stroke-linejoin:miter;stroke-opacity:1"
       d="m 3474.0259,1047.4921 -403.5714,57.1428"
       id="path7418"
       inkscape:connector-curvature="0" />
    <path
       style="fill:none;fill-rule:evenodd;stroke:#0000ff;stroke-width:1px;stroke-linecap:butt;stroke-linejoin:miter;stroke-opacity:1"
       d="m 3127.5974,1204.6349 -71.4286,-92.8571"
       id="path7420"
       inkscape:connector-curvature="0" />
    <path
       style="fill:none;fill-rule:evenodd;stroke:#0000ff;stroke-width:1px;stroke-linecap:butt;stroke-linejoin:miter;stroke-opacity:1"
       d="m 3584.7402,1390.3492 -146.4286,292.8571"
       id="path7422"
       inkscape:connector-curvature="0" />
    <path
       style="fill:none;fill-rule:evenodd;stroke:#0000ff;stroke-width:0.95563287px;stroke-linecap:butt;stroke-linejoin:miter;stroke-opacity:1"
       d="m 3826.4313,1555.852 -380.9898,116.6705"
       id="path7424"
       inkscape:connector-curvature="0" />
    <path
       style="fill:none;fill-rule:evenodd;stroke:#0000ff;stroke-width:1px;stroke-linecap:butt;stroke-linejoin:miter;stroke-opacity:1"
       d="m 3306.1688,1522.492 135.7143,157.1429"
       id="path7426"
       inkscape:connector-curvature="0" />
    <path
       style="fill:none;fill-rule:evenodd;stroke:#000000;stroke-width:1px;stroke-linecap:butt;stroke-linejoin:miter;stroke-opacity:1"
       d="m 3370.4545,1751.0635 71.4286,-60.7143"
       id="path7428"
       inkscape:connector-curvature="0" />
    <path
       style="fill:none;fill-rule:evenodd;stroke:#0000ff;stroke-width:1px;stroke-linecap:butt;stroke-linejoin:miter;stroke-opacity:1"
       d="m 3788.3116,1754.6349 -357.1428,-64.2857"
       id="path7430"
       inkscape:connector-curvature="0" />
    <path
       style="fill:none;fill-rule:evenodd;stroke:#0000ff;stroke-width:1px;stroke-linecap:butt;stroke-linejoin:miter;stroke-opacity:1"
       d="M 2209.7402,1343.9206 2141.8831,729.63496"
       id="path7432"
       inkscape:connector-curvature="0" />
    <path
       style="fill:none;fill-rule:evenodd;stroke:#0000ff;stroke-width:1px;stroke-linecap:butt;stroke-linejoin:miter;stroke-opacity:1"
       d="M 1899.0259,1229.6349 3070.4545,1108.2064"
       id="path7434"
       inkscape:connector-curvature="0" />
    <path
       style="fill:none;fill-rule:evenodd;stroke:#0000ff;stroke-width:1px;stroke-linecap:butt;stroke-linejoin:miter;stroke-opacity:1"
       d="m 2731.1688,1851.0635 -575,-1103.5714"
       id="path7436"
       inkscape:connector-curvature="0" />
    <path
       style="fill:none;fill-rule:evenodd;stroke:#0000ff;stroke-width:1px;stroke-linecap:butt;stroke-linejoin:miter;stroke-opacity:1"
       d="m 3366.8831,1751.0635 -300,-639.2857"
       id="path7438"
       inkscape:connector-curvature="0" />
    <path
       style="fill:none;fill-rule:evenodd;stroke:#0000ff;stroke-width:1.00068092px;stroke-linecap:butt;stroke-linejoin:miter;stroke-opacity:1"
       d="m 3590.704,1390.3493 -1755.9638,57.1426"
       id="path7440"
       inkscape:connector-curvature="0" />
    <path
       style="fill:none;fill-rule:evenodd;stroke:#0000ff;stroke-width:1px;stroke-linecap:butt;stroke-linejoin:miter;stroke-opacity:1"
       d="M 3788.3116,1761.7778 2527.5974,2051.0635"
       id="path7442"
       inkscape:connector-curvature="0" />
    <path
       style="fill:none;fill-rule:evenodd;stroke:#0000ff;stroke-width:0.97330469px;stroke-linecap:butt;stroke-linejoin:miter;stroke-opacity:1"
       d="M 2388.3241,507.02352 2520.4763,2051.0673"
       id="path7444"
       inkscape:connector-curvature="0" />
    <flowRoot
       xml:space="preserve"
       id="flowRoot7824"
       style="fill:black;stroke:none;stroke-opacity:1;stroke-width:1px;stroke-linejoin:miter;stroke-linecap:butt;fill-opacity:1;font-family:sans-serif;font-style:normal;font-weight:normal;font-size:40px;line-height:125%;letter-spacing:0px;word-spacing:0px"><flowRegion
         id="flowRegion7826"><rect
           id="rect7828"
           width="196.36363"
           height="90.909088"
           x="1703.6364"
           y="4940.7271" /></flowRegion><flowPara
         id="flowPara7830" /></flowRoot>    <rect
       style="opacity:1;fill:none;fill-opacity:1;stroke:#000000;stroke-width:0.51719975;stroke-linecap:round;stroke-linejoin:round;stroke-miterlimit:4;stroke-dasharray:none;stroke-opacity:1"
       id="rect5684"
       width="251.2113"
       height="121.91136"
       x="3354.5127"
       y="378.13303" />
    <flowRoot
       transform="translate(2083.6898,317.51731)"
       style="font-style:normal;font-weight:normal;font-size:40px;line-height:125%;font-family:sans-serif;letter-spacing:0px;word-spacing:0px;fill:#000000;fill-opacity:1;stroke:none;stroke-width:1px;stroke-linecap:butt;stroke-linejoin:miter;stroke-opacity:1"
       id="flowRoot5686"
       xml:space="preserve"><flowRegion
         id="flowRegion5688"><rect
           y="106.69297"
           x="1566.6136"
           height="86.30703"
           width="411.95782"
           id="rect5691" /></flowRegion><flowPara
         id="flowPara5693">fragments</flowPara></flowRoot>    <circle
       style="opacity:1;fill:#000000;fill-opacity:1;stroke:none;stroke-width:1;stroke-linecap:round;stroke-linejoin:round;stroke-miterlimit:4;stroke-dasharray:none;stroke-opacity:1"
       id="circle5695"
       cx="3477.2944"
       cy="612.09485"
       r="24.427755" />
    <flowRoot
       xml:space="preserve"
       id="flowRoot5697"
       style="font-style:normal;font-weight:normal;font-size:40px;line-height:125%;font-family:sans-serif;letter-spacing:0px;word-spacing:0px;fill:#000000;fill-opacity:1;stroke:none;stroke-width:1px;stroke-linecap:butt;stroke-linejoin:miter;stroke-opacity:1"
       transform="translate(2087.2612,478.2316)"><flowRegion
         id="flowRegion5699"><rect
           id="rect5701"
           width="411.95782"
           height="86.30703"
           x="1566.6136"
           y="106.69297" /></flowRegion><flowPara
         id="flowPara5703">mots clés</flowPara></flowRoot>    <path
       inkscape:connector-curvature="0"
       id="path5705"
       d="m 3358.6898,728.37445 239.2857,0"
       style="fill:none;fill-rule:evenodd;stroke:#0000ff;stroke-width:1px;stroke-linecap:butt;stroke-linejoin:miter;stroke-opacity:1" />
    <flowRoot
       transform="translate(2087.2612,599.66017)"
       style="font-style:normal;font-weight:normal;font-size:40px;line-height:125%;font-family:sans-serif;letter-spacing:0px;word-spacing:0px;fill:#000000;fill-opacity:1;stroke:none;stroke-width:1px;stroke-linecap:butt;stroke-linejoin:miter;stroke-opacity:1"
       id="flowRoot5707"
       xml:space="preserve"><flowRegion
         id="flowRegion5709"><rect
           y="106.69297"
           x="1566.6136"
           height="86.30703"
           width="411.95782"
           id="rect5711" /></flowRegion><flowPara
         id="flowPara5713">liens</flowPara></flowRoot>    <flowRoot
       xml:space="preserve"
       id="flowRoot5722"
       style="fill:black;stroke:none;stroke-opacity:1;stroke-width:1px;stroke-linejoin:miter;stroke-linecap:butt;fill-opacity:1;font-family:sans-serif;font-style:normal;font-weight:normal;font-size:40px;line-height:125%;letter-spacing:0px;word-spacing:0px"><flowRegion
         id="flowRegion5724"><rect
           id="rect5726"
           width="1152.9622"
           height="206.60016"
           x="3308.9348"
           y="2384.1465" /></flowRegion><flowPara
         id="flowPara5728" /></flowRoot>    <flowRoot
       xml:space="preserve"
       id="flowRoot5730"
       style="font-style:normal;font-weight:normal;font-size:40px;line-height:125%;font-family:sans-serif;letter-spacing:0px;word-spacing:0px;fill:#000000;fill-opacity:1;stroke:none;stroke-width:1px;stroke-linecap:butt;stroke-linejoin:miter;stroke-opacity:1"
       transform="translate(-2027.3571,-2329.5752)"><flowRegion
         id="flowRegion5732"><rect
           id="rect5734"
           width="1249.5977"
           height="249.91966"
           x="3338.9253"
           y="2367.4851" /></flowRegion><flowPara
         id="flowPara5738">Schéma n°1:</flowPara><flowPara
         id="flowPara5636" /><flowPara
         id="flowPara5638">- chaque &quot;mot clé&quot; regroupe des liens vers des &quot;fragments&quot;</flowPara><flowPara
         id="flowPara5740">- un &quot;fragment&quot; peut avoir plusieurs &quot;mots clés&quot;  </flowPara></flowRoot>    <rect
       y="312.14661"
       x="4136.2959"
       height="2281.7742"
       width="2614.2856"
       id="rect5744"
       style="opacity:1;fill:none;fill-opacity:1;stroke:#0000ff;stroke-width:1;stroke-linecap:round;stroke-linejoin:round;stroke-miterlimit:4;stroke-dasharray:none;stroke-opacity:1" />
    <circle
       r="24.427755"
       cy="741.92676"
       cx="4962.0435"
       id="circle5746"
       style="opacity:1;fill:#000000;fill-opacity:1;stroke:none;stroke-width:1;stroke-linecap:round;stroke-linejoin:round;stroke-miterlimit:4;stroke-dasharray:none;stroke-opacity:1" />
    <circle
       style="opacity:1;fill:#000000;fill-opacity:1;stroke:none;stroke-width:1;stroke-linecap:round;stroke-linejoin:round;stroke-miterlimit:4;stroke-dasharray:none;stroke-opacity:1"
       id="circle5748"
       cx="4651.3291"
       cy="1449.0697"
       r="24.427755" />
    <circle
       r="24.427755"
       cy="1113.3553"
       cx="5879.8999"
       id="circle5750"
       style="opacity:1;fill:#000000;fill-opacity:1;stroke:none;stroke-width:1;stroke-linecap:round;stroke-linejoin:round;stroke-miterlimit:4;stroke-dasharray:none;stroke-opacity:1" />
    <rect
       style="opacity:1;fill:none;fill-opacity:1;stroke:#000000;stroke-width:0.51719975;stroke-linecap:round;stroke-linejoin:round;stroke-miterlimit:4;stroke-dasharray:none;stroke-opacity:1"
       id="rect5752"
       width="251.2113"
       height="121.91136"
       x="4957.1187"
       y="511.53635" />
    <rect
       y="715.10773"
       x="5067.8325"
       height="121.91136"
       width="251.2113"
       id="rect5754"
       style="opacity:1;fill:none;fill-opacity:1;stroke:#000000;stroke-width:0.51719975;stroke-linecap:round;stroke-linejoin:round;stroke-miterlimit:4;stroke-dasharray:none;stroke-opacity:1" />
    <rect
       style="opacity:1;fill:none;fill-opacity:1;stroke:#000000;stroke-width:0.51719975;stroke-linecap:round;stroke-linejoin:round;stroke-miterlimit:4;stroke-dasharray:none;stroke-opacity:1"
       id="rect5756"
       width="251.2113"
       height="121.91136"
       x="4628.5469"
       y="793.67914" />
    <rect
       y="575.82202"
       x="4560.6899"
       height="121.91136"
       width="251.2113"
       id="rect5758"
       style="opacity:1;fill:none;fill-opacity:1;stroke:#000000;stroke-width:0.51719975;stroke-linecap:round;stroke-linejoin:round;stroke-miterlimit:4;stroke-dasharray:none;stroke-opacity:1" />
    <rect
       style="opacity:1;fill:none;fill-opacity:1;stroke:#000000;stroke-width:0.51719975;stroke-linecap:round;stroke-linejoin:round;stroke-miterlimit:4;stroke-dasharray:none;stroke-opacity:1"
       id="rect5760"
       width="251.2113"
       height="121.91136"
       x="4464.2607"
       y="1229.3936" />
    <rect
       y="1347.2507"
       x="4778.5464"
       height="121.91136"
       width="251.2113"
       id="rect5762"
       style="opacity:1;fill:none;fill-opacity:1;stroke:#000000;stroke-width:0.51719975;stroke-linecap:round;stroke-linejoin:round;stroke-miterlimit:4;stroke-dasharray:none;stroke-opacity:1" />
    <rect
       style="opacity:1;fill:none;fill-opacity:1;stroke:#000000;stroke-width:0.51719975;stroke-linecap:round;stroke-linejoin:round;stroke-miterlimit:4;stroke-dasharray:none;stroke-opacity:1"
       id="rect5764"
       width="251.2113"
       height="121.91136"
       x="4635.6895"
       y="1565.1079" />
    <circle
       style="opacity:1;fill:#000000;fill-opacity:1;stroke:none;stroke-width:1;stroke-linecap:round;stroke-linejoin:round;stroke-miterlimit:4;stroke-dasharray:none;stroke-opacity:1"
       id="circle5766"
       cx="5337.043"
       cy="2049.0696"
       r="24.427755" />
    <rect
       style="opacity:1;fill:none;fill-opacity:1;stroke:#000000;stroke-width:0.51719975;stroke-linecap:round;stroke-linejoin:round;stroke-miterlimit:4;stroke-dasharray:none;stroke-opacity:1"
       id="rect5768"
       width="251.2113"
       height="121.91136"
       x="5699.9751"
       y="1200.8221" />
    <rect
       y="1043.6793"
       x="6042.8315"
       height="121.91136"
       width="251.2113"
       id="rect5770"
       style="opacity:1;fill:none;fill-opacity:1;stroke:#000000;stroke-width:0.51719975;stroke-linecap:round;stroke-linejoin:round;stroke-miterlimit:4;stroke-dasharray:none;stroke-opacity:1" />
    <rect
       style="opacity:1;fill:none;fill-opacity:1;stroke:#000000;stroke-width:0.51719975;stroke-linecap:round;stroke-linejoin:round;stroke-miterlimit:4;stroke-dasharray:none;stroke-opacity:1"
       id="rect5772"
       width="251.2113"
       height="121.91136"
       x="5753.5464"
       y="865.10785" />
    <rect
       y="1025.8221"
       x="5510.689"
       height="121.91136"
       width="251.2113"
       id="rect5774"
       style="opacity:1;fill:none;fill-opacity:1;stroke:#000000;stroke-width:0.51719975;stroke-linecap:round;stroke-linejoin:round;stroke-miterlimit:4;stroke-dasharray:none;stroke-opacity:1" />
    <rect
       style="opacity:1;fill:none;fill-opacity:1;stroke:#000000;stroke-width:0.51719975;stroke-linecap:round;stroke-linejoin:round;stroke-miterlimit:4;stroke-dasharray:none;stroke-opacity:1"
       id="rect5776"
       width="251.2113"
       height="121.91136"
       x="5299.9751"
       y="1854.3936" />
    <rect
       y="2118.6794"
       x="5021.4038"
       height="121.91136"
       width="251.2113"
       id="rect5778"
       style="opacity:1;fill:none;fill-opacity:1;stroke:#000000;stroke-width:0.51719975;stroke-linecap:round;stroke-linejoin:round;stroke-miterlimit:4;stroke-dasharray:none;stroke-opacity:1" />
    <circle
       r="24.427755"
       cy="1681.2124"
       cx="6254.8999"
       id="circle5780"
       style="opacity:1;fill:#000000;fill-opacity:1;stroke:none;stroke-width:1;stroke-linecap:round;stroke-linejoin:round;stroke-miterlimit:4;stroke-dasharray:none;stroke-opacity:1" />
    <rect
       y="1390.1078"
       x="6157.1177"
       height="121.91136"
       width="251.2113"
       id="rect5782"
       style="opacity:1;fill:none;fill-opacity:1;stroke:#000000;stroke-width:0.51719975;stroke-linecap:round;stroke-linejoin:round;stroke-miterlimit:4;stroke-dasharray:none;stroke-opacity:1" />
    <rect
       style="opacity:1;fill:none;fill-opacity:1;stroke:#000000;stroke-width:0.51719975;stroke-linecap:round;stroke-linejoin:round;stroke-miterlimit:4;stroke-dasharray:none;stroke-opacity:1"
       id="rect5784"
       width="251.2113"
       height="121.91136"
       x="5939.2612"
       y="1750.8221" />
    <rect
       y="1750.8221"
       x="6353.5464"
       height="121.91136"
       width="251.2113"
       id="rect5786"
       style="opacity:1;fill:none;fill-opacity:1;stroke:#000000;stroke-width:0.51719975;stroke-linecap:round;stroke-linejoin:round;stroke-miterlimit:4;stroke-dasharray:none;stroke-opacity:1" />
    <rect
       style="opacity:1;fill:none;fill-opacity:1;stroke:#000000;stroke-width:0.51719975;stroke-linecap:round;stroke-linejoin:round;stroke-miterlimit:4;stroke-dasharray:none;stroke-opacity:1"
       id="rect5788"
       width="251.2113"
       height="121.91136"
       x="5874.9751"
       y="1522.2507" />
    <rect
       y="1554.3937"
       x="6389.2612"
       height="121.91136"
       width="251.2113"
       id="rect5790"
       style="opacity:1;fill:none;fill-opacity:1;stroke:#000000;stroke-width:0.51719975;stroke-linecap:round;stroke-linejoin:round;stroke-miterlimit:4;stroke-dasharray:none;stroke-opacity:1" />
    <path
       inkscape:connector-curvature="0"
       id="path5792"
       d="m 4961.2957,729.63496 350,-17.85714"
       style="fill:none;fill-rule:evenodd;stroke:#0000ff;stroke-width:1px;stroke-linecap:butt;stroke-linejoin:miter;stroke-opacity:1" />
    <path
       inkscape:connector-curvature="0"
       id="path5794"
       d="M 5204.1528,504.63496 4968.4386,733.20639"
       style="fill:none;fill-rule:evenodd;stroke:#0000ff;stroke-width:1px;stroke-linecap:butt;stroke-linejoin:miter;stroke-opacity:1" />
    <path
       inkscape:connector-curvature="0"
       id="path5796"
       d="m 4807.7243,576.06353 146.4285,153.57143"
       style="fill:none;fill-rule:evenodd;stroke:#0000ff;stroke-width:1px;stroke-linecap:butt;stroke-linejoin:miter;stroke-opacity:1" />
    <path
       inkscape:connector-curvature="0"
       id="path5798"
       d="m 4875.5814,793.92067 89.2857,-60.71428"
       style="fill:#0000ff;fill-rule:evenodd;stroke:#0000ff;stroke-width:1px;stroke-linecap:butt;stroke-linejoin:miter;stroke-opacity:1" />
    <path
       inkscape:connector-curvature="0"
       id="path5800"
       d="m 4711.2957,1233.2064 -50,214.2856"
       style="fill:none;fill-rule:evenodd;stroke:#0000ff;stroke-width:1px;stroke-linecap:butt;stroke-linejoin:miter;stroke-opacity:1" />
    <path
       inkscape:connector-curvature="0"
       id="path5802"
       d="m 5032.7243,1347.492 -375,100"
       style="fill:none;fill-rule:evenodd;stroke:#0000ff;stroke-width:1px;stroke-linecap:butt;stroke-linejoin:miter;stroke-opacity:1" />
    <path
       inkscape:connector-curvature="0"
       id="path5804"
       d="M 4886.2957,1561.7778 4654.1528,1443.9206"
       style="fill:none;fill-rule:evenodd;stroke:#0000ff;stroke-width:1px;stroke-linecap:butt;stroke-linejoin:miter;stroke-opacity:1" />
    <path
       inkscape:connector-curvature="0"
       id="path5806"
       d="m 5547.01,1851.0635 -214.2857,203.5714"
       style="fill:none;fill-rule:evenodd;stroke:#0000ff;stroke-width:1px;stroke-linecap:butt;stroke-linejoin:miter;stroke-opacity:1" />
    <path
       inkscape:connector-curvature="0"
       id="path5808"
       d="m 5264.8671,2118.9206 71.4286,-60.7143"
       style="fill:none;fill-rule:evenodd;stroke:#0000ff;stroke-width:1px;stroke-linecap:butt;stroke-linejoin:miter;stroke-opacity:1" />
    <path
       inkscape:connector-curvature="0"
       id="path5810"
       d="M 6000.5814,865.34925 5882.7243,1115.3492"
       style="fill:none;fill-rule:evenodd;stroke:#0000ff;stroke-width:1px;stroke-linecap:butt;stroke-linejoin:miter;stroke-opacity:1" />
    <path
       inkscape:connector-curvature="0"
       id="path5812"
       d="m 5754.1528,1029.6349 121.4286,75"
       style="fill:none;fill-rule:evenodd;stroke:#0000ff;stroke-width:1px;stroke-linecap:butt;stroke-linejoin:miter;stroke-opacity:1" />
    <path
       inkscape:connector-curvature="0"
       id="path5814"
       d="m 6289.8671,1047.4921 -403.5714,57.1428"
       style="fill:none;fill-rule:evenodd;stroke:#0000ff;stroke-width:1px;stroke-linecap:butt;stroke-linejoin:miter;stroke-opacity:1" />
    <path
       inkscape:connector-curvature="0"
       id="path5816"
       d="M 5943.4386,1204.6349 5872.01,1111.7778"
       style="fill:none;fill-rule:evenodd;stroke:#0000ff;stroke-width:1px;stroke-linecap:butt;stroke-linejoin:miter;stroke-opacity:1" />
    <path
       inkscape:connector-curvature="0"
       id="path5818"
       d="m 6400.5814,1390.3492 -146.4286,292.8571"
       style="fill:none;fill-rule:evenodd;stroke:#0000ff;stroke-width:1px;stroke-linecap:butt;stroke-linejoin:miter;stroke-opacity:1" />
    <path
       inkscape:connector-curvature="0"
       id="path5820"
       d="m 6642.2725,1555.852 -380.9898,116.6705"
       style="fill:none;fill-rule:evenodd;stroke:#0000ff;stroke-width:0.95563287px;stroke-linecap:butt;stroke-linejoin:miter;stroke-opacity:1" />
    <path
       inkscape:connector-curvature="0"
       id="path5822"
       d="m 6122.01,1522.492 135.7143,157.1429"
       style="fill:none;fill-rule:evenodd;stroke:#0000ff;stroke-width:1px;stroke-linecap:butt;stroke-linejoin:miter;stroke-opacity:1" />
    <path
       inkscape:connector-curvature="0"
       id="path5824"
       d="m 6186.2957,1751.0635 71.4286,-60.7143"
       style="fill:none;fill-rule:evenodd;stroke:#000000;stroke-width:1px;stroke-linecap:butt;stroke-linejoin:miter;stroke-opacity:1" />
    <path
       inkscape:connector-curvature="0"
       id="path5826"
       d="M 6604.1528,1754.6349 6247.01,1690.3492"
       style="fill:none;fill-rule:evenodd;stroke:#0000ff;stroke-width:1px;stroke-linecap:butt;stroke-linejoin:miter;stroke-opacity:1" />
    <path
       inkscape:connector-curvature="0"
       id="path5828"
       d="M 5025.5814,1343.9206 4957.7243,729.63496"
       style="fill:none;fill-rule:evenodd;stroke:#0000ff;stroke-width:1px;stroke-linecap:butt;stroke-linejoin:miter;stroke-opacity:1" />
    <path
       inkscape:connector-curvature="0"
       id="path5830"
       d="M 4714.8671,1229.6349 5886.2957,1108.2064"
       style="fill:none;fill-rule:evenodd;stroke:#0000ff;stroke-width:1px;stroke-linecap:butt;stroke-linejoin:miter;stroke-opacity:1" />
    <path
       inkscape:connector-curvature="0"
       id="path5832"
       d="m 5547.01,1851.0635 -575,-1103.5714"
       style="fill:none;fill-rule:evenodd;stroke:#0000ff;stroke-width:1px;stroke-linecap:butt;stroke-linejoin:miter;stroke-opacity:1" />
    <path
       inkscape:connector-curvature="0"
       id="path5834"
       d="m 6182.7243,1751.0635 -300,-639.2857"
       style="fill:none;fill-rule:evenodd;stroke:#0000ff;stroke-width:1px;stroke-linecap:butt;stroke-linejoin:miter;stroke-opacity:1" />
    <path
       inkscape:connector-curvature="0"
       id="path5836"
       d="m 6406.5452,1390.3493 -1755.9638,57.1426"
       style="fill:none;fill-rule:evenodd;stroke:#0000ff;stroke-width:1.00068092px;stroke-linecap:butt;stroke-linejoin:miter;stroke-opacity:1" />
    <path
       inkscape:connector-curvature="0"
       id="path5838"
       d="M 6604.1528,1761.7778 5276.7934,2117.7087"
       style="fill:none;fill-rule:evenodd;stroke:#ff0000;stroke-width:1px;stroke-linecap:butt;stroke-linejoin:miter;stroke-opacity:1"
       sodipodi:nodetypes="cc" />
    <path
       inkscape:connector-curvature="0"
       id="path5840"
       d="m 5204.1653,507.02352 798.6043,357.75901"
       style="fill:none;fill-rule:evenodd;stroke:#ff0000;stroke-width:0.97330469px;stroke-linecap:butt;stroke-linejoin:miter;stroke-opacity:1"
       sodipodi:nodetypes="cc" />
    <rect
       y="378.13303"
       x="6170.354"
       height="121.91136"
       width="251.2113"
       id="rect5842"
       style="opacity:1;fill:none;fill-opacity:1;stroke:#000000;stroke-width:0.51719975;stroke-linecap:round;stroke-linejoin:round;stroke-miterlimit:4;stroke-dasharray:none;stroke-opacity:1" />
    <flowRoot
       xml:space="preserve"
       id="flowRoot5844"
       style="font-style:normal;font-weight:normal;font-size:40px;line-height:125%;font-family:sans-serif;letter-spacing:0px;word-spacing:0px;fill:#000000;fill-opacity:1;stroke:none;stroke-width:1px;stroke-linecap:butt;stroke-linejoin:miter;stroke-opacity:1"
       transform="translate(4899.531,317.51731)"><flowRegion
         id="flowRegion5846"><rect
           id="rect5848"
           width="411.95782"
           height="86.30703"
           x="1566.6136"
           y="106.69297" /></flowRegion><flowPara
         id="flowPara5850">fragments</flowPara></flowRoot>    <circle
       r="24.427755"
       cy="612.09485"
       cx="6293.1353"
       id="circle5852"
       style="opacity:1;fill:#000000;fill-opacity:1;stroke:none;stroke-width:1;stroke-linecap:round;stroke-linejoin:round;stroke-miterlimit:4;stroke-dasharray:none;stroke-opacity:1" />
    <flowRoot
       transform="translate(4903.1024,478.2316)"
       style="font-style:normal;font-weight:normal;font-size:40px;line-height:125%;font-family:sans-serif;letter-spacing:0px;word-spacing:0px;fill:#000000;fill-opacity:1;stroke:none;stroke-width:1px;stroke-linecap:butt;stroke-linejoin:miter;stroke-opacity:1"
       id="flowRoot5854"
       xml:space="preserve"><flowRegion
         id="flowRegion5856"><rect
           y="106.69297"
           x="1566.6136"
           height="86.30703"
           width="411.95782"
           id="rect5858" /></flowRegion><flowPara
         id="flowPara5860">mots clés</flowPara></flowRoot>    <path
       style="fill:none;fill-rule:evenodd;stroke:#0000ff;stroke-width:1px;stroke-linecap:butt;stroke-linejoin:miter;stroke-opacity:1"
       d="m 6174.531,728.37445 239.2857,0"
       id="path5862"
       inkscape:connector-curvature="0" />
    <flowRoot
       xml:space="preserve"
       id="flowRoot5864"
       style="font-style:normal;font-weight:normal;font-size:40px;line-height:125%;font-family:sans-serif;letter-spacing:0px;word-spacing:0px;fill:#000000;fill-opacity:1;stroke:none;stroke-width:1px;stroke-linecap:butt;stroke-linejoin:miter;stroke-opacity:1"
       transform="translate(4903.1024,599.66017)"><flowRegion
         id="flowRegion5866"><rect
           id="rect5868"
           width="411.95782"
           height="86.30703"
           x="1566.6136"
           y="106.69297" /></flowRegion><flowPara
         id="flowPara5870">liens</flowPara></flowRoot>    <flowRoot
       transform="translate(799.57135,-2396.0991)"
       style="font-style:normal;font-weight:normal;font-size:40px;line-height:125%;font-family:sans-serif;letter-spacing:0px;word-spacing:0px;fill:#000000;fill-opacity:1;stroke:none;stroke-width:1px;stroke-linecap:butt;stroke-linejoin:miter;stroke-opacity:1"
       id="flowRoot5872"
       xml:space="preserve"><flowRegion
         id="flowRegion5874"><rect
           y="2367.4851"
           x="3338.9253"
           height="249.91966"
           width="1249.5977"
           id="rect5876" /></flowRegion><flowPara
         id="flowPara5878">Schéma n°2:</flowPara><flowPara
         id="flowPara5642" /><flowPara
         id="flowPara5640">- chaque &quot;mot clé&quot; regroupe des liens vers des &quot;fragments&quot;</flowPara><flowPara
         id="flowPara5880">- un &quot;fragment&quot; peut avoir plusieurs &quot;mots clés&quot;</flowPara><flowPara
         id="flowPara5892">- il existe des liens directs entre les fragmets  </flowPara></flowRoot>    <path
       inkscape:connector-curvature="0"
       id="path5882"
       d="m 6174.531,825.01001 239.2857,0"
       style="fill:none;fill-rule:evenodd;stroke:#ff0000;stroke-width:1px;stroke-linecap:butt;stroke-linejoin:miter;stroke-opacity:1" />
    <flowRoot
       transform="translate(4899.7701,689.63121)"
       style="font-style:normal;font-weight:normal;font-size:40px;line-height:125%;font-family:sans-serif;letter-spacing:0px;word-spacing:0px;fill:#000000;fill-opacity:1;stroke:none;stroke-width:1px;stroke-linecap:butt;stroke-linejoin:miter;stroke-opacity:1"
       id="flowRoot5884"
       xml:space="preserve"><flowRegion
         id="flowRegion5886"><rect
           y="106.69297"
           x="1566.6136"
           height="86.30703"
           width="411.95782"
           id="rect5888" /></flowRegion><flowPara
         id="flowPara5890">liens directs</flowPara></flowRoot>    <text
       xml:space="preserve"
       style="font-style:normal;font-weight:normal;font-size:40px;line-height:125%;font-family:sans-serif;letter-spacing:0px;word-spacing:0px;fill:#000000;fill-opacity:1;stroke:none;stroke-width:1px;stroke-linecap:butt;stroke-linejoin:miter;stroke-opacity:1"
       x="4783.2852"
       y="-900.64716"
       id="text5644"
       sodipodi:linespacing="125%"><tspan
         sodipodi:role="line"
         id="tspan5646"
         x="4783.2852"
         y="-900.64716" /></text>
    <path
       style="fill:none;fill-rule:evenodd;stroke:#ff0000;stroke-width:1px;stroke-linecap:butt;stroke-linejoin:miter;stroke-opacity:1"
       d="M 4886.0406,1563.9177 5763.307,1024.0615"
       id="path5652"
       inkscape:connector-curvature="0" />
    <path
       style="fill:none;fill-rule:evenodd;stroke:#ff0000;stroke-width:1px;stroke-linecap:butt;stroke-linejoin:miter;stroke-opacity:1"
       d="M 4882.0711,785.88964 5544.9828,1857.663"
       id="path5655"
       inkscape:connector-curvature="0"
       sodipodi:nodetypes="cc" />
    <path
       style="fill:none;fill-rule:evenodd;stroke:#ff0000;stroke-width:1px;stroke-linecap:butt;stroke-linejoin:miter;stroke-opacity:1"
       d="M 6644.543,1555.9787 6406.3711,1389.2583"
       id="path5657"
       inkscape:connector-curvature="0" />
  </g>
</svg>
